^D:\VS PROJECTS\SGI_CPPEVALUATION_Q1\SGI_CPPEVALUATION_Q1\STDAFX.CPP
D:\VS PROJECTS\SGI_CPPEVALUATION_Q1\SGI_CPPEVALUATION_Q1\DEBUG\SGI_CPPEVALUATION_Q1.PCH
D:\VS PROJECTS\SGI_CPPEVALUATION_Q1\SGI_CPPEVALUATION_Q1\DEBUG\VC141.PDB
D:\VS PROJECTS\SGI_CPPEVALUATION_Q1\SGI_CPPEVALUATION_Q1\DEBUG\VC141.IDB
D:\VS PROJECTS\SGI_CPPEVALUATION_Q1\SGI_CPPEVALUATION_Q1\DEBUG\STDAFX.OBJ
^D:\VS PROJECTS\SGI_CPPEVALUATION_Q1\SGI_CPPEVALUATION_Q1\POINT2D.CPP|D:\VS PROJECTS\SGI_CPPEVALUATION_Q1\SGI_CPPEVALUATION_Q1\RECTANGLE.CPP|D:\VS PROJECTS\SGI_CPPEVALUATION_Q1\SGI_CPPEVALUATION_Q1\SGI_CPPEVALUATION_Q1.CPP
D:\VS PROJECTS\SGI_CPPEVALUATION_Q1\SGI_CPPEVALUATION_Q1\DEBUG\VC141.PDB
D:\VS PROJECTS\SGI_CPPEVALUATION_Q1\SGI_CPPEVALUATION_Q1\DEBUG\VC141.IDB
D:\VS PROJECTS\SGI_CPPEVALUATION_Q1\SGI_CPPEVALUATION_Q1\DEBUG\POINT2D.OBJ
D:\VS PROJECTS\SGI_CPPEVALUATION_Q1\SGI_CPPEVALUATION_Q1\DEBUG\RECTANGLE.OBJ
D:\VS PROJECTS\SGI_CPPEVALUATION_Q1\SGI_CPPEVALUATION_Q1\DEBUG\SGI_CPPEVALUATION_Q1.OBJ
^D:\VS PROJECTS\SGI_CPPEVALUATION_Q1\SGI_CPPEVALUATION_Q1\POINT2D.CPP
D:\VS PROJECTS\SGI_CPPEVALUATION_Q1\SGI_CPPEVALUATION_Q1\DEBUG\VC141.PDB
^D:\VS PROJECTS\SGI_CPPEVALUATION_Q1\SGI_CPPEVALUATION_Q1\RECTANGLE.CPP
D:\VS PROJECTS\SGI_CPPEVALUATION_Q1\SGI_CPPEVALUATION_Q1\DEBUG\VC141.PDB
D:\VS PROJECTS\SGI_CPPEVALUATION_Q1\SGI_CPPEVALUATION_Q1\DEBUG\VC141.IDB
D:\VS PROJECTS\SGI_CPPEVALUATION_Q1\SGI_CPPEVALUATION_Q1\DEBUG\RECTANGLE.OBJ
^D:\VS PROJECTS\SGI_CPPEVALUATION_Q1\SGI_CPPEVALUATION_Q1\SGI_CPPEVALUATION_Q1.CPP
D:\VS PROJECTS\SGI_CPPEVALUATION_Q1\SGI_CPPEVALUATION_Q1\DEBUG\VC141.PDB
D:\VS PROJECTS\SGI_CPPEVALUATION_Q1\SGI_CPPEVALUATION_Q1\DEBUG\VC141.IDB
D:\VS PROJECTS\SGI_CPPEVALUATION_Q1\SGI_CPPEVALUATION_Q1\DEBUG\SGI_CPPEVALUATION_Q1.OBJ
^D:\VS PROJECTS\SGI_CPPEVALUATION_Q1\SGI_CPPEVALUATION_Q1\POINT2D.CPP|D:\VS PROJECTS\SGI_CPPEVALUATION_Q1\SGI_CPPEVALUATION_Q1\RECTANGLE.CPP
D:\VS PROJECTS\SGI_CPPEVALUATION_Q1\SGI_CPPEVALUATION_Q1\DEBUG\VC141.PDB
D:\VS PROJECTS\SGI_CPPEVALUATION_Q1\SGI_CPPEVALUATION_Q1\DEBUG\VC141.IDB
D:\VS PROJECTS\SGI_CPPEVALUATION_Q1\SGI_CPPEVALUATION_Q1\DEBUG\POINT2D.OBJ
^D:\VS PROJECTS\SGI_CPPEVALUATION_Q1\SGI_CPPEVALUATION_Q1\RECTANGLE.CPP|D:\VS PROJECTS\SGI_CPPEVALUATION_Q1\SGI_CPPEVALUATION_Q1\SGI_CPPEVALUATION_Q1.CPP
D:\VS PROJECTS\SGI_CPPEVALUATION_Q1\SGI_CPPEVALUATION_Q1\DEBUG\VC141.PDB
D:\VS PROJECTS\SGI_CPPEVALUATION_Q1\SGI_CPPEVALUATION_Q1\DEBUG\VC141.IDB
D:\VS PROJECTS\SGI_CPPEVALUATION_Q1\SGI_CPPEVALUATION_Q1\DEBUG\SGI_CPPEVALUATION_Q1.OBJ
D:\VS PROJECTS\SGI_CPPEVALUATION_Q1\SGI_CPPEVALUATION_Q1\DEBUG\RECTANGLE.OBJ
